<svg width="37" height="32" viewBox="0 0 37 32" fill="none" xmlns="http://www.w3.org/2000/svg">
<path d="M23.5501 15.9994C23.5501 16.2893 23.4329 16.5528 23.1984 16.7637L15.578 23.3522C15.109 23.7476 14.3763 23.7476 13.9074 23.3259C13.4677 22.9042 13.4677 22.2453 13.9367 21.8237L20.6778 15.9994L13.9367 10.175C13.4677 9.77972 13.4677 9.09452 13.9074 8.67285C14.347 8.25118 15.109 8.25122 15.578 8.64653L23.1984 15.2351C23.4329 15.4459 23.5501 15.7095 23.5501 15.9994Z" fill="white"/>
</svg>
